{
  "statusCode": 200,
  "message": "完成",
  "data": {
    "pageInfo": {
      "pageIndex": 1,
      "pageSize": 15,
      "totalCount": 24,
      "pageCount": 2,
      "orderby": null,
      "objCondition": {
        "readState": "0",
        "endDate": "",
        "title": "",
        "startDate": "",
        "receiveId": "admin"
      }
    },
    "dataSource": [
      {
        "id": "402881c45d695d99015d6971c8670003",
        "title": "招商银行信用卡电子账单",
        "sendId": "00000000-0000-0000-0000-000000000000",
        "sendName": "超级管理员",
        "receiveId": "admin",
        "receiveName": "超级管理员",
        "typeId": "00000000-0000-0000-0000-000000000000",
        "orgId": "00000000-0000-0000-0000-000000000000",
        "orgName": "超级管理员组织",
        "content": "您有一条新的消息、请注意查收",
        "description": "招商银行信用卡电子账单",
        "sendState": 0,
        "readState": 0,
        "sentType": "1",
        "sentTypeText": "站内信",
        "createTime": 1500712650758,
        "updateTime": 1500712650758
      },
      {
        "id": "402881c45d695d99015d69677b950002",
        "title": "招商银行信用卡电子账单",
        "sendId": "00000000-0000-0000-0000-000000000000",
        "sendName": "超级管理员",
        "receiveId": "admin",
        "receiveName": "超级管理员",
        "typeId": "00000000-0000-0000-0000-000000000000",
        "orgId": "00000000-0000-0000-0000-000000000000",
        "orgName": "超级管理员组织",
        "content": "您有一条新的消息、请注意查收",
        "description": "招商银行信用卡电子账单",
        "sendState": 0,
        "readState": 0,
        "sentType": "1",
        "sentTypeText": "站内信",
        "createTime": 1500711975728,
        "updateTime": 1500711975728
      },
      {
        "id": "402881c45d695d99015d6964792d0001",
        "title": "招商银行信用卡电子账单",
        "sendId": "00000000-0000-0000-0000-000000000000",
        "sendName": "超级管理员",
        "receiveId": "admin",
        "receiveName": "超级管理员",
        "typeId": "00000000-0000-0000-0000-000000000000",
        "orgId": "00000000-0000-0000-0000-000000000000",
        "orgName": "超级管理员组织",
        "content": "您有一条新的消息、请注意查收",
        "description": "招商银行信用卡电子账单",
        "sendState": 0,
        "readState": 0,
        "sentType": "1",
        "sentTypeText": "站内信",
        "createTime": 1500711778499,
        "updateTime": 1500711778499
      },
      {
        "id": "402881c45d6959a7015d695a7e680000",
        "title": "招商银行信用卡电子账单",
        "sendId": "00000000-0000-0000-0000-000000000000",
        "sendName": "超级管理员",
        "receiveId": "admin",
        "receiveName": "超级管理员",
        "typeId": "00000000-0000-0000-0000-000000000000",
        "orgId": "00000000-0000-0000-0000-000000000000",
        "orgName": "超级管理员组织",
        "content": "您有一条新的消息、请注意查收",
        "description": "招商银行信用卡电子账单",
        "sendState": 0,
        "readState": 0,
        "sentType": "1",
        "sentTypeText": "站内信",
        "createTime": 1500711124542,
        "updateTime": 1500711124542
      },
      {
        "id": "402881c45d694b45015d6955d1710006",
        "title": "招商银行信用卡电子账单",
        "sendId": "00000000-0000-0000-0000-000000000000",
        "sendName": "超级管理员",
        "receiveId": "admin",
        "receiveName": "超级管理员",
        "typeId": "00000000-0000-0000-0000-000000000000",
        "orgId": "00000000-0000-0000-0000-000000000000",
        "orgName": "超级管理员组织",
        "content": "您有一条新的消息、请注意查收",
        "description": "招商银行信用卡电子账单",
        "sendState": 0,
        "readState": 0,
        "sentType": "1",
        "sentTypeText": "站内信",
        "createTime": 1500710818054,
        "updateTime": 1500710818054
      },
      {
        "id": "402881c45d694b45015d6950c0fe0005",
        "title": "招商银行信用卡电子账单",
        "sendId": "00000000-0000-0000-0000-000000000000",
        "sendName": "超级管理员",
        "receiveId": "admin",
        "receiveName": "超级管理员",
        "typeId": "00000000-0000-0000-0000-000000000000",
        "orgId": "00000000-0000-0000-0000-000000000000",
        "orgName": "超级管理员组织",
        "content": "您有一条新的消息、请注意查收",
        "description": "招商银行信用卡电子账单",
        "sendState": 0,
        "readState": 0,
        "sentType": "1",
        "sentTypeText": "站内信",
        "createTime": 1500710486172,
        "updateTime": 1500710486172
      },
      {
        "id": "402881c45d694b45015d694f806c0004",
        "title": "招商银行信用卡电子账单",
        "sendId": "00000000-0000-0000-0000-000000000000",
        "sendName": "超级管理员",
        "receiveId": "admin",
        "receiveName": "超级管理员",
        "typeId": "00000000-0000-0000-0000-000000000000",
        "orgId": "00000000-0000-0000-0000-000000000000",
        "orgName": "超级管理员组织",
        "content": "您有一条新的消息、请注意查收",
        "description": "招商银行信用卡电子账单",
        "sendState": 0,
        "readState": 0,
        "sentType": "1",
        "sentTypeText": "站内信",
        "createTime": 1500710404101,
        "updateTime": 1500710404101
      },
      {
        "id": "402881c45d694b45015d694ee7040003",
        "title": "招商银行信用卡电子账单",
        "sendId": "00000000-0000-0000-0000-000000000000",
        "sendName": "超级管理员",
        "receiveId": "admin",
        "receiveName": "超级管理员",
        "typeId": "00000000-0000-0000-0000-000000000000",
        "orgId": "00000000-0000-0000-0000-000000000000",
        "orgName": "超级管理员组织",
        "content": "您有一条新的消息、请注意查收",
        "description": "招商银行信用卡电子账单",
        "sendState": 0,
        "readState": 0,
        "sentType": "1",
        "sentTypeText": "站内信",
        "createTime": 1500710364831,
        "updateTime": 1500710364831
      },
      {
        "id": "402881c45d694b45015d694eae0e0002",
        "title": "招商银行信用卡电子账单",
        "sendId": "00000000-0000-0000-0000-000000000000",
        "sendName": "超级管理员",
        "receiveId": "admin",
        "receiveName": "超级管理员",
        "typeId": "00000000-0000-0000-0000-000000000000",
        "orgId": "00000000-0000-0000-0000-000000000000",
        "orgName": "超级管理员组织",
        "content": "您有一条新的消息、请注意查收",
        "description": "招商银行信用卡电子账单",
        "sendState": 0,
        "readState": 0,
        "sentType": "1",
        "sentTypeText": "站内信",
        "createTime": 1500710350249,
        "updateTime": 1500710350249
      },
      {
        "id": "402881c45d694b45015d694e17bb0001",
        "title": "招商银行信用卡电子账单",
        "sendId": "00000000-0000-0000-0000-000000000000",
        "sendName": "超级管理员",
        "receiveId": "admin",
        "receiveName": "超级管理员",
        "typeId": "00000000-0000-0000-0000-000000000000",
        "orgId": "00000000-0000-0000-0000-000000000000",
        "orgName": "超级管理员组织",
        "content": "您有一条新的消息、请注意查收",
        "description": "招商银行信用卡电子账单",
        "sendState": 0,
        "readState": 0,
        "sentType": "1",
        "sentTypeText": "站内信",
        "createTime": 1500710311754,
        "updateTime": 1500710311754
      },
      {
        "id": "402881c45d694b45015d694dffe60000",
        "title": "招商银行信用卡电子账单",
        "sendId": "00000000-0000-0000-0000-000000000000",
        "sendName": "超级管理员",
        "receiveId": "admin",
        "receiveName": "超级管理员",
        "typeId": "00000000-0000-0000-0000-000000000000",
        "orgId": "00000000-0000-0000-0000-000000000000",
        "orgName": "超级管理员组织",
        "content": "您有一条新的消息、请注意查收",
        "description": "招商银行信用卡电子账单",
        "sendState": 0,
        "readState": 0,
        "sentType": "1",
        "sentTypeText": "站内信",
        "createTime": 1500710305634,
        "updateTime": 1500710305634
      },
      {
        "id": "402881c45d68d0c6015d6945adfe0013",
        "title": "招商银行信用卡电子账单",
        "sendId": "00000000-0000-0000-0000-000000000000",
        "sendName": "超级管理员",
        "receiveId": "admin",
        "receiveName": "超级管理员",
        "typeId": "00000000-0000-0000-0000-000000000000",
        "orgId": "00000000-0000-0000-0000-000000000000",
        "orgName": "超级管理员组织",
        "content": "您有一条新的消息、请注意查收",
        "description": "招商银行信用卡电子账单",
        "sendState": 0,
        "readState": 0,
        "sentType": "1",
        "sentTypeText": "站内信",
        "createTime": 1500709760492,
        "updateTime": 1500709760492
      },
      {
        "id": "402881c45d68d0c6015d69459fe60012",
        "title": "招商银行信用卡电子账单",
        "sendId": "00000000-0000-0000-0000-000000000000",
        "sendName": "超级管理员",
        "receiveId": "admin",
        "receiveName": "超级管理员",
        "typeId": "00000000-0000-0000-0000-000000000000",
        "orgId": "00000000-0000-0000-0000-000000000000",
        "orgName": "超级管理员组织",
        "content": "您有一条新的消息、请注意查收",
        "description": "招商银行信用卡电子账单",
        "sendState": 0,
        "readState": 0,
        "sentType": "1",
        "sentTypeText": "站内信",
        "createTime": 1500709756889,
        "updateTime": 1500709756889
      },
      {
        "id": "402881c45d68d0c6015d694596210011",
        "title": "招商银行信用卡电子账单",
        "sendId": "00000000-0000-0000-0000-000000000000",
        "sendName": "超级管理员",
        "receiveId": "admin",
        "receiveName": "超级管理员",
        "typeId": "00000000-0000-0000-0000-000000000000",
        "orgId": "00000000-0000-0000-0000-000000000000",
        "orgName": "超级管理员组织",
        "content": "您有一条新的消息、请注意查收",
        "description": "招商银行信用卡电子账单",
        "sendState": 0,
        "readState": 0,
        "sentType": "1",
        "sentTypeText": "站内信",
        "createTime": 1500709754382,
        "updateTime": 1500709754382
      },
      {
        "id": "402881c45d68d0c6015d693975f10010",
        "title": "招商银行信用卡电子账单",
        "sendId": "00000000-0000-0000-0000-000000000000",
        "sendName": "超级管理员",
        "receiveId": "admin",
        "receiveName": "超级管理员",
        "typeId": "00000000-0000-0000-0000-000000000000",
        "orgId": "00000000-0000-0000-0000-000000000000",
        "orgName": "超级管理员组织",
        "content": "您有一条新的消息、请注意查收",
        "description": "招商银行信用卡电子账单",
        "sendState": 0,
        "readState": 0,
        "sentType": "1",
        "sentTypeText": "站内信",
        "createTime": 1500708959710,
        "updateTime": 1500708959710
      }
    ]
  }
}